<?xml version="1.0" encoding="utf-8"?>
<!-- Generator: Adobe Illustrator 18.1.0, SVG Export Plug-In . SVG Version: 6.00 Build 0)  -->
<svg version="1.1" id="Layer_1" xmlns="http://www.w3.org/2000/svg" xmlns:xlink="http://www.w3.org/1999/xlink" x="0px" y="0px"
	 viewBox="0 0 23.5 9.4" enable-background="new 0 0 23.5 9.4" xml:space="preserve">
<path fill="#222" d="M15.1,0c-0.1,0-0.2,0.1-0.2,0.3v3.4H0v2.2h14.9v3.3c0,0.2,0.2,0.3,0.3,0.2l8.2-4.4c0.1-0.1,0.1-0.2,0-0.4
	L15.2,0C15.1,0,15.1,0,15.1,0z"/>
</svg>
