<?xml version="1.0" encoding="utf-8"?>
<!-- Generator: Adobe Illustrator 18.1.0, SVG Export Plug-In . SVG Version: 6.00 Build 0)  -->
<svg version="1.1" id="Layer_1" xmlns="http://www.w3.org/2000/svg" xmlns:xlink="http://www.w3.org/1999/xlink" x="0px" y="0px"
	 viewBox="0 0 660 474.4" enable-background="new 0 0 660 474.4" xml:space="preserve">
<path fill="#fff" d="M0,0v61.9h660V0H0z M0,206.2v61.9h660v-61.9H0z M0,412.5v61.9h660v-61.9H0z"/>
</svg>
